<svg xmlns="http://www.w3.org/2000/svg" viewBox="0 0 24 24">
  <path d="M12 3.5h4.2c2.8.2 4.1 1.5 4.2 4.3a71.9 71.9 0 010 8.4c0 2.8-1.4 4.1-4.2 4.2a72 72 0 01-8.4 0c-2.8 0-4.1-1.4-4.2-4.2a71.6 71.6 0 010-8.4C3.7 5 5 3.7 7.8 3.6H12zm0-1.9l-4.3.1C4 1.9 2 4 1.7 7.7a72.8 72.8 0 000 8.6c.2 3.7 2.3 5.8 6 6a74 74 0 008.6 0c3.7-.2 5.8-2.3 6-6a72.8 72.8 0 000-8.6c-.2-3.7-2.3-5.8-6-6H12zm0 5a5.3 5.3 0 100 10.7 5.3 5.3 0 000-10.6zm0 8.9a3.5 3.5 0 110-7 3.5 3.5 0 010 7zm5.5-10.3a1.2 1.2 0 100 2.5 1.2 1.2 0 000-2.5z"/>
</svg>
