<svg xmlns="http://www.w3.org/2000/svg" viewBox="0 0 512 512">
  <path d="M49.7 103.4v305.2H462.3V103.4H49.7zm365.8 35L256 260.4l-159.4-122h319zM84.7 173.5l85.5 65.4-85.5 85.5V173.5zm.4 200l113.2-113 57.6 44 57.4-43.8 113 112.9H85zm342.2-48.4l-86-85.9 86-65.7v151.6z"/>
</svg>
