<svg xmlns="http://www.w3.org/2000/svg" viewBox="0 0 512 512">
  <path d="M422.5 233l39.5 23-206 120.2L50 256l39.5-23L256 330l166.5-97zM256 416L89.5 318.7l-39.5 23L256 462l206-120.2-39.5-23L256 415.9zm206-245.8L256 50 50 170.2l206 120.1 206-120.1z"/>
</svg>
