<svg xmlns="http://www.w3.org/2000/svg" viewBox="0 0 24 24">
  <path d="M5 7a5 5 0 110 10A5 5 0 015 7zm11.1 12a4 4 0 003.9 5 4 4 0 10-3-6.7l-5.4-3a7 7 0 01-1 1.8l5.5 3zM24 4a4 4 0 10-7.9 1l-5.5 2.9a7 7 0 011 1.7L17 6.7A4 4 0 0024 4z"/>
</svg>
