<svg viewBox="0 0 26 26" xmlns="http://www.w3.org/2000/svg">
  <g class="abm-logo-icon">
    <path d="M24.902 21.047a.728.728 0 00.056-.132.727.727 0 00.026-.136.724.724 0 00.002-.152c-.003-.023.005-.045 0-.069l-1.83-9.482c-.007-.034-.028-.06-.038-.092-.01-.032-.01-.065-.025-.095-.008-.016-.022-.025-.03-.04a.72.72 0 00-.098-.127c-.03-.032-.056-.065-.09-.09-.04-.033-.086-.055-.133-.078-.04-.02-.079-.04-.122-.052-.044-.012-.089-.015-.135-.019a.713.713 0 00-.16 0c-.017.001-.032-.004-.049-.001-.033.006-.058.026-.089.037-.032.01-.066.01-.097.025l-2.753 1.346c.44-.877.799-1.966.799-3.206 0-3.921-3.179-7.114-7.093-7.134H12.992c-3.915.02-7.094 3.213-7.094 7.134 0 1.229.353 2.309.788 3.182l-3.434 1.678c-.014.007-.023.02-.036.028a.716.716 0 00-.139.106c-.03.028-.058.053-.082.084a.727.727 0 00-.076.131.733.733 0 00-.054.134c-.005.018-.017.031-.02.05l-1.831 9.481c-.005.024.003.046 0 .07a.725.725 0 00.032.297c.007.024.005.048.015.07.012.03.033.053.048.08.014.023.027.046.043.068a.74.74 0 00.163.163l.022.02c.074.048.157.08.244.1.01.002.017.009.026.01.048.01.095.014.141.014h.003a.739.739 0 00.274-.056c.007-.003.014-.001.02-.004l6.732-2.885L17 24.407l.017.003c.075.025.153.04.233.04.092 0 .18-.022.265-.054.01-.004.02-.002.03-.006l7-3c.023-.01.038-.029.059-.04a.721.721 0 00.122-.085.725.725 0 00.1-.1.73.73 0 00.076-.118zm-20.656-6.32l3.22-1.573 1.363 1.853-.517 5.065-5.557 2.381 1.491-7.725zm5.067 5.377l.398-3.897 2.69 3.657c.141.193.391.306.63.306s.462-.114.604-.306l2.39-3.25.62 6.077-7.332-2.587zm8.338 2.608l-.745-7.298.765-1.04 4.197-2.052L23.4 20.25l-5.748 2.463zM13.018 3.05a5.639 5.639 0 015.618 5.634c0 1.464-.653 2.7-1.205 3.484l-.006.007-4.407 5.996-4.392-5.973-.008-.01c-.556-.785-1.22-2.029-1.22-3.504a5.64 5.64 0 015.62-5.634z"/>
    <path d="M13.03 11.847c1.741 0 3.158-1.419 3.158-3.163s-1.417-3.163-3.158-3.163c-1.742 0-3.159 1.419-3.159 3.163s1.417 3.163 3.16 3.163zm0-5.326a2.163 2.163 0 010 4.326 2.164 2.164 0 010-4.326z"/>
  </g>
</svg>
